{
    "commit-msg": {
        "enabled": true,
        "actions": [
            {
                "action": "\\CaptainHook\\App\\Hook\\Message\\Action\\Beams",
                "options": {
                    "subjectLength": 50,
                    "bodyLineLength": 72
                }
            }
        ]
    },
    "pre-push": {
        "enabled": true,
        "actions": [
            {
                "action": "\\CaptainHook\\App\\Hook\\PHP\\Action\\TestCoverage",
                "options": {
                    "minCoverage": 95,
                    "phpUnit": "vendor/bin/phpunit"
                }
            },
            {
                "action": "vendor/bin/psalm",
                "options": []
            }
        ]
    },
    "pre-commit": {
        "enabled": true,
        "actions": [
            {
                "action" : "vendor/bin/php-cs-fixer fix --config=.php-cs-fixer.php {$STAGED_FILES|of-type:php} && git add {$STAGED_FILES|of-type:php}",
                "conditions" : [
                    {
                        "exec" : "\\CaptainHook\\App\\Hook\\Condition\\FileStaged\\OfType",
                        "args" : [
                            "php"
                        ]
                    }
                ]
            },
            {
                "action": "\\CaptainHook\\App\\Hook\\PHP\\Action\\Linting",
                "options": []
            }
        ]
    },
    "prepare-commit-msg": {
        "enabled": false,
        "actions": []
    },
    "post-commit": {
        "enabled": false,
        "actions": []
    },
    "post-merge": {
        "enabled": false,
        "actions": []
    },
    "post-checkout": {
        "enabled": false,
        "actions": []
    },
    "post-rewrite": {
        "enabled": false,
        "actions": []
    },
    "post-change": {
        "enabled": true,
        "actions": [
            {
                "action" : "composer install",
                "options" : {},
                "conditions" : [
                    {
                        "exec" : "\\CaptainHook\\App\\Hook\\Condition\\FileChanged\\Any",
                        "args" : [
                            [
                                "composer.json"
                            ]
                        ]
                    }
                ]
            }
        ]
    }
}
